{
  "results": [
    {
      "id": 9,
      "propertyReference": "72782235",
      "address": "39 Random Street",
      "dampAndMouldPresenceConfirmed": true,
      "previouslyReported": null,
      "previousReportResolved": false,
      "comments": "Report indicates presence of damp and mould at the property. Further inspection recommended.",
      "reportedAt": "2024-02-08T20:43:56.991908Z",
      "numberOfRecentReportsForProperty": 0
    },
    {
      "id": 8,
      "propertyReference": "73607536",
      "address": "54 Random Street",
      "dampAndMouldPresenceConfirmed": true,
      "previouslyReported": true,
      "previousReportResolved": true,
      "comments": "Report indicates absence of damp and mould at the property. Further inspection recommended.",
      "reportedAt": "2024-03-13T10:51:52.929602Z",
      "numberOfRecentReportsForProperty": 0
    },
    {
      "id": 7,
      "propertyReference": "81143913",
      "address": "69 Random Street",
      "dampAndMouldPresenceConfirmed": false,
      "previouslyReported": null,
      "previousReportResolved": false,
      "comments": "Report indicates presence of damp and mould at the property. Further inspection recommended.",
      "reportedAt": "2024-10-14T11:46:01.118136Z",
      "numberOfRecentReportsForProperty": 1
    },
    {
      "id": 14,
      "propertyReference": "88151999",
      "address": "100 Random Street",
      "dampAndMouldPresenceConfirmed": false,
      "previouslyReported": true,
      "previousReportResolved": false,
      "comments": "Report indicates absence of damp and mould at the property. Further inspection recommended.",
      "reportedAt": "2024-11-24T07:07:06.126025Z",
      "numberOfRecentReportsForProperty": 6
    },
    {
      "id": 13,
      "propertyReference": "20381781",
      "address": "64 Random Street",
      "dampAndMouldPresenceConfirmed": false,
      "previouslyReported": null,
      "previousReportResolved": true,
      "comments": "Report indicates absence of damp and mould at the property. Further inspection recommended.",
      "reportedAt": "2024-02-11T11:07:09.866261Z",
      "numberOfRecentReportsForProperty": 3
    },
    {
      "id": 10,
      "propertyReference": "83460189",
      "address": "20 Random Street",
      "dampAndMouldPresenceConfirmed": false,
      "previouslyReported": false,
      "previousReportResolved": true,
      "comments": "Report indicates presence of damp and mould at the property. Further inspection recommended.",
      "reportedAt": "2024-11-02T03:21:03.740385Z",
      "numberOfRecentReportsForProperty": 8
    },

    {
      "id": 20,
      "propertyReference": "72782235",
      "address": "39 Random Street",
      "dampAndMouldPresenceConfirmed": true,
      "previouslyReported": null,
      "previousReportResolved": false,
      "comments": "Report indicates presence of damp and mould at the property. Further inspection recommended.",
      "reportedAt": "2024-02-08T20:43:56.991908Z",
      "numberOfRecentReportsForProperty": 0
    },
    {
      "id": 21,
      "propertyReference": "73607536",
      "address": "54 Random Street",
      "dampAndMouldPresenceConfirmed": true,
      "previouslyReported": true,
      "previousReportResolved": true,
      "comments": "Report indicates absence of damp and mould at the property. Further inspection recommended.",
      "reportedAt": "2024-03-13T10:51:52.929602Z",
      "numberOfRecentReportsForProperty": 0
    },
    {
      "id": 22,
      "propertyReference": "81143913",
      "address": "69 Random Street",
      "dampAndMouldPresenceConfirmed": false,
      "previouslyReported": null,
      "previousReportResolved": false,
      "comments": "Report indicates presence of damp and mould at the property. Further inspection recommended.",
      "reportedAt": "2024-10-14T11:46:01.118136Z",
      "numberOfRecentReportsForProperty": 1
    },
    {
      "id": 23,
      "propertyReference": "88151999",
      "address": "100 Random Street",
      "dampAndMouldPresenceConfirmed": false,
      "previouslyReported": true,
      "previousReportResolved": false,
      "comments": "Report indicates absence of damp and mould at the property. Further inspection recommended.",
      "reportedAt": "2024-11-24T07:07:06.126025Z",
      "numberOfRecentReportsForProperty": 6
    },
    {
      "id": 24,
      "propertyReference": "20381781",
      "address": "64 Random Street",
      "dampAndMouldPresenceConfirmed": false,
      "previouslyReported": null,
      "previousReportResolved": true,
      "comments": "Report indicates absence of damp and mould at the property. Further inspection recommended.",
      "reportedAt": "2024-02-11T11:07:09.866261Z",
      "numberOfRecentReportsForProperty": 3
    },
    {
      "id": 25,
      "propertyReference": "83460189",
      "address": "20 Random Street",
      "dampAndMouldPresenceConfirmed": false,
      "previouslyReported": false,
      "previousReportResolved": true,
      "comments": "Report indicates presence of damp and mould at the property. Further inspection recommended.",
      "reportedAt": "2024-11-02T03:21:03.740385Z",
      "numberOfRecentReportsForProperty": 8
    }
  ],
  "pageNumber": 1,
  "pageSize": 12,
  "pageCount": 2,
  "totalCount": 24
}
